{
  "collectionName": "components_element_buttons",
  "info": {
    "displayName": "Button"
  },
  "options": {},
  "attributes": {
    "title": {
      "type": "string"
    },
    "link": {
      "type": "string"
    },
    "isExternal": {
      "type": "boolean",
      "default": false
    },
    "type": {
      "type": "enumeration",
      "enum": [
        "PRIMARY",
        "SECONDARY"
      ]
    }
  }
}
