{
  "collectionName": "components_element_cards",
  "info": {
    "displayName": "Card"
  },
  "options": {},
  "attributes": {
    "image": {
      "allowedTypes": [
        "images"
      ],
      "type": "media",
      "multiple": false
    },
    "heading": {
      "type": "string"
    },
    "description": {
      "type": "text"
    }
  }
}
