{
  "collectionName": "components_element_forms",
  "info": {
    "displayName": "Form"
  },
  "options": {},
  "attributes": {
    "heading": {
      "type": "string"
    },
    "description": {
      "type": "text"
    },
    "Input": {
      "type": "component",
      "repeatable": true,
      "component": "element.input"
    },
    "button": {
      "type": "component",
      "repeatable": false,
      "component": "element.button"
    }
  }
}
