{
  "kind": "collectionType",
  "collectionName": "landing_pages",
  "info": {
    "singularName": "landing-page",
    "pluralName": "landing-pages",
    "displayName": "Landing page",
    "description": ""
  },
  "options": {
    "draftAndPublish": true
  },
  "pluginOptions": {},
  "attributes": {
    "title": {
      "type": "string"
    },
    "description": {
      "type": "text"
    },
    "slug": {
      "type": "uid",
      "targetField": "description"
    },
    "metadata": {
      "type": "component",
      "repeatable": false,
      "component": "seo.meta-data"
    },
    "blocks": {
      "type": "dynamiczone",
      "components": [
        "blocks.hero",
        "blocks.row",
        "blocks.pricing",
        "blocks.cta"
      ]
    }
  }
}
